…
 8 Lobot       175  79   none       light      blue            37   male  mascu…
 9 Mon Mot…    150  NA   auburn     fair       blue            48   fema… femin…
10 Qui-Gon…    193  89   brown      fair       blue            92   male  mascu…
11 Finis V…    170  NA   blond      fair       blue            91   male  mascu…
12 Ric Olié    183  NA   brown      fair       blue            NA   male  mascu…
13 Adi Gal…    184  50   none       dark       blue            NA   fema… femin…
14 Mas Ame…    196  NA   none       blue       blue            NA   male  mascu…
15 Cliegg …    183  NA   brown      fair       blue            82   male  mascu…
16 Luminar…    170  56.2 black      yellow     blue            58   fema… femin…
17 Barriss…    166  50   black      yellow     blue            40   fema… femin…
18 Jocasta…    167  NA   white      fair       blue            NA   fema… femin…
19 Tarfful     234 136   brown      brown      blue            NA   male  mascu…
# ℹ 5 more variables: homeworld <chr>, species <chr>, films <list>,
#   vehicles <list>, starships <list>
# A tibble: 39 × 14
   name     height  mass hair_color skin_color eye_color birth_year sex   gender
   <chr>     <int> <dbl> <chr>      <chr>      <chr>          <dbl> <chr> <chr> 
 1 Grievous    216   159 none       brown, wh… green, y…       NA   male  mascu…
 2 IG-88       200   140 none       metal      red             15   none  mascu…
 3 Darth V…    202   136 none       white      yellow          41.9 male  mascu…
 4 Tarfful     234   136 brown      brown      blue            NA   male  mascu…
 5 Bossk       190   113 none       green      red             53   male  mascu…
 6 Chewbac…    228   112 brown      unknown    blue           200   male  mascu…
 7 Dexter …    198   102 none       brown      yellow          NA   male  mascu…
 8 Nute Gu…    191    90 none       mottled g… red             NA   male  mascu…
 9 Qui-Gon…    193    89 brown      fair       blue            92   male  mascu…
10 Lama Su     229    88 none       grey       black           NA   male  mascu…
# ℹ 29 more rows
# ℹ 5 more variables: homeworld <chr>, species <chr>, films <list>,
#   vehicles <list>, starships <list>
# A tibble: 3 × 2
  gender    mean_height
  <chr>           <dbl>
1 feminine         167.
2 masculine        177.
3 <NA>             175 
# A tibble: 1 × 2
  eye_color     n
  <chr>     <int>
1 brown        21
# A tibble: 32 × 12
# Groups:   cyl [3]
     mpg   cyl  disp    hp  drat    wt  qsec    vs    am  gear  carb rank_hp
   <dbl> <dbl> <dbl> <dbl> <dbl> <dbl> <dbl> <dbl> <dbl> <dbl> <dbl>   <dbl>
 1  21       6  160    110  3.9   2.62  16.5     0     1     4     4     5  
 2  21       6  160    110  3.9   2.88  17.0     0     1     4     4     5  
 3  22.8     4  108     93  3.85  2.32  18.6     1     1     4     1     5  
 4  21.4     6  258    110  3.08  3.22  19.4     1     0     3     1     5  
 5  18.7     8  360    175  3.15  3.44  17.0     0     0     3     2    11.5
 6  18.1     6  225    105  2.76  3.46  20.2     1     0     3     1     7  
 7  14.3     8  360    245  3.21  3.57  15.8     0     0     3     4     3.5
 8  24.4     4  147.    62  3.69  3.19  20       1     0     4     2    10  
 9  22.8     4  141.    95  3.92  3.15  22.9     1     0     4     2     4  
10  19.2     6  168.   123  3.92  3.44  18.3     1     0     4     4     2.5
# ℹ 22 more rows
…
